<mxfile host="app.diagrams.net" modified="2024-04-10T09:51:51.318Z" agent="Mozilla/5.0 (Windows NT 10.0; Win64; x64) AppleWebKit/537.36 (KHTML, like Gecko) Chrome/123.0.0.0 Safari/537.36 Edg/123.0.0.0" version="24.2.3" etag="ux6zPmIO9jISPDCjL6HB" type="gitlab">
  <diagram name="Page-1" id="ytOILPyv28VhjSVMqUmp">
    <mxGraphModel>
      <root>
        <mxCell id="0" />
        <mxCell id="1" parent="0" />
      </root>
    </mxGraphModel>
  </diagram>
</mxfile>
